…
In terms of statistical metrics, the `bp_stats` function aggregates many
of the variability and center metrics into one table which makes
comparing the different measures to one another very convenient. Let’s
suppose for this example that we wanted to further analyze these two
subjects by their `SBP_CATEGORY` and were not concerned about DBP
output: we would set `bp_type = 1` to subset on only SBP measures, and
we would include `add_groups = "SBP_category"` as an additional argument
(note that capitalization does not matter).

``` r
bp_stats(hypnos_proc, subj = c(70417, 70435), add_groups = "sbp_category", bp_type = 1)
#> # A tibble: 21 x 16
#> # Groups:   ID, VISIT, WAKE [8]
#>       ID     N VISIT  WAKE SBP_CATEGORY SBP_mean SBP_med    SD   ARV    SV
#>    <int> <int> <int> <int> <fct>           <dbl>   <dbl> <dbl> <dbl> <dbl>
#>  1 70417     4     1     0 Normal           116.    116.  2.06  1.33  1.83
#>  2 70417     1     1     1 Normal           118     118  NA    NA    NA   
#>  3 70417     5     1     1 Elevated         124     124   2.24  2.5   3.24
#>  4 70417     3     1     1 Stage 1          135.    136   3.21  3     3.61
#>  5 70417     2     1     1 Stage 2          144     144   1.41  2     2   
#>  6 70417     2     2     0 Stage 1          133     133   1.41  2     2   
#>  7 70417     2     2     0 Stage 2          151     151   0     0     0   
#>  8 70417     1     2     1 Normal           120     120  NA    NA    NA   
#>  9 70417     1     2     1 Elevated         121     121  NA    NA    NA   
#> 10 70417     5     2     1 Stage 1          134.    132   4.28  2.75  4.15
#> # ... with 11 more rows, and 6 more variables: CV <dbl>, SBP_max <dbl>,
#> #   SBP_min <dbl>, SBP_range <dbl>, Peak <dbl>, Trough <dbl>
```
…
